846781 140392 525
163966 322532 443
613923 695828 509
463070 832259 509
301040 792620 509
22907 67837 340
282611 534895 470
60607 725577 509
204838 538304 470
519376 384387 470
190968 190894 223
251111 763960 509
406263 316749 441
691535 232097 509
400343 954243 525
613629 469101 470
939873 291423 525
250246 394167 441
450171 348003 449
762305 246039 509
36048 974882 525
590841 73172 470
934812 41796 525
845775 611191 525
423189 695975 509
492587 810043 509
329593 760096 509
629084 541152 509
66033 418399 449
694484 582686 509
268319 920944 525
90873 494007 449
362569 840222 525
20521 199398 383
242913 252274 350
546125 295603 470
579568 604249 434
470360 3048 449
39647 55011 340
127965 774302 509
343458 237992 407
453835 156144 449
617089 89285 470
399238 435217 449
787460 7492 509
447714 306746 449
774971 154202 509
143102 955515 525
848935 617673 525
353915 142899 443
674889 953062 525
550552 652827 509
930500 60341 525
779244 567612 509
395441 896496 525
116286 165761 383
887808 30247 525
120964 733543 509
978053 224769 525
419255 762384 509
634919 409824 509
986511 396663 525
712736 472035 509
74016 284607 443
688945 976900 525
679441 864228 525
110886 467298 449
171828 516562 470
3329 136986 354
798151 191700 509
567750 726414 509
296775 869221 525
594658 206919 470
966187 408291 525
598329 97079 470
945028 264417 525
744331 918743 525
494639 245915 449
138498 686959 509
958067 77444 525
797082 628212 504
721086 261436 509
860013 941451 507
582519 395358 470
979610 469439 525
493941 853841 525
120034 731850 509
165710 799102 509
330542 787475 509
125288 389008 443
353803 984833 525
531208 486117 470
825805 201748 509
362281 690388 509
801891 848395 525
148369 371158 443
527035 941974 525
433855 182225 449
30212 599155 470
572673 394243 470
416079 994344 525
375202 841672 525
318095 615643 470
167103 463751 449
665279 39249 509
672954 549247 509
105122 53953 351
525832 652074 509
392550 602901 470
848742 147979 525
70562 275068 443
342825 752345 509
582463 135086 470
606002 937544 525
477042 755838 509
545472 985776 525
163175 695509 509
39967 534108 470
565433 114448 470
956542 81714 525
501470 442168 444
169118 159034 370
389280 679130 509
823079 728140 468
531014 363395 470
884437 748762 525
147921 637722 509
760847 581079 509
967842 647642 525
258072 397764 441
350969 743850 509
759774 248789 509
96472 912474 525
274224 616708 470
57670 750460 509
846797 975281 507
626095 515741 452
722519 256308 509
936296 983327 507
212071 354625 443
712785 513012 509
169530 682615 509
686804 757689 504
518472 317701 470
219273 366508 443
721205 249913 509
870780 508172 525
188769 397479 443
683270 933580 525
74522 323442 443
976151 652403 525
982065 117690 525
779094 710163 468
560810 9442 470
200671 954915 525
332492 970428 525
652203 841916 525
239321 375252 441
410126 553452 470
239832 91670 443
452505 304570 449
626510 180444 509
48991 742712 509
240587 384152 441
554261 222462 470
533536 347867 470
647315 480264 509
221230 703423 509
288311 108142 443
105241 439479 449
306792 378940 441
609500 448497 470
832568 585965 509
840374 433317 525
629347 744777 504
152579 817405 509
335028 915416 525
786149 232929 509
857799 9730 525
541345 361630 470
293737 99204 443
76806 934002 525
823003 922577 525
266439 503222 449
657590 627843 429
93610 557864 470
165224 387388 443
483865 980693 525
159324 280990 443
496022 862111 525
852920 647458 525
299532 187760 443
758336 107097 509
797376 713788 468
149400 323389 443
982438 749612 525
652838 617971 509
472336 561708 470
52502 129440 354
622210 222354 470
333495 795813 509
198944 701097 509
436291 122488 449
679176 535642 509
488955 422816 444
846460 944950 507
193841 62157 383
824 901411 525
716319 337041 509
176739 387872 443
778165 292095 509
741216 97782 509
182384 513759 470
224067 550141 470
659174 685386 442
799841 741704 468
974238 184552 525
49280 829934 509
729947 182532 509
346029 16950 443
899322 812617 525
563757 427870 470
514353 770204 509
432267 865992 525
236663 471445 449
798992 189378 509
731907 208603 509
16849 330864 443
576172 345626 470
156450 615448 470
325167 321764 384
737896 460234 509
897231 125729 525
488461 312938 449
751063 984500 525
857740 412635 525
639483 257069 509
557804 365962 470
304349 58084 443
257993 471636 449
910827 307576 525
219021 222613 355
177573 797028 509
674174 45134 509
244540 643643 509
964658 633970 525
280726 881536 525
729629 258637 509
447086 833316 509
9099 838098 525
