1 10 20
100 200 125
201 210 89
900 1000 174
522095 603065 452
681137 520270 509
10512 548052 470
124289 157279 383
66684 93136 351
811558 718180 468
241632 19183 443
623470 934549 525
684816 295641 509
771121 931577 525
923975 554131 525
514239 485398 470
446388 842952 525
555300 398173 470
111285 717008 509
103404 754252 509
800462 604301 509
185505 548941 470
740446 793290 468
750545 608489 509
546809 84792 470
521222 698733 509
518170 756239 509
24556 689997 509
709161 141508 509
457808 612460 470
770328 346974 509
510656 319750 449
606005 897452 525
371804 291244 441
175544 553008 470
800908 923735 525
544993 187545 470
222779 899590 525
302774 204377 443
175533 687414 509
854001 48920 525
311208 840854 525
326636 466509 449
214547 663094 509
360507 983015 525
584109 958324 525
805703 643717 504
531060 753043 509
29594 664830 509
643493 486150 509
575792 625238 447
935661 587749 525
546328 727988 509
340585 105792 443
556953 137414 470
751690 652961 504
506897 373131 449
436921 365818 449
423455 871665 525
55166 536503 470
377787 880153 525
229459 480898 449
300302 864577 525
385682 588693 470
819132 346971 509
485698 613873 470
957041 94834 525
17130 28586 308
365723 415598 449
204644 608024 470
580329 778543 509
299806 289862 371
132879 308480 443
980109 903981 507
626796 574189 509
507078 604034 470
295031 837269 509
897912 416788 525
944547 596225 525
508712 805551 509
30160 446699 449
799605 273430 509
678106 709569 504
199221 532738 470
544032 823123 509
688090 200371 509
71005 806820 509
80981 518759 470
23351 965416 525
331499 229199 443
997582 332086 525
991288 617113 525
876899 819099 525
430052 693122 509
592190 515372 452
355416 176181 443
260415 942555 525
592070 349977 470
891314 17218 525
421098 897714 525
655017 518737 509
669107 389903 509
472459 5293 449
31702 786832 509
509406 440486 444
486927 216363 449
192676 221011 386
833400 558391 509
635942 114110 509
965946 304972 525
159182 434735 449
759633 868132 525
302736 743611 509
884777 252149 525
4918 500975 449
731654 268606 509
446769 860354 525
672678 397727 509
421858 542398 470
670030 633890 442
72548 586830 470
3246 922623 525
359913 566303 470
256914 943946 525
340123 951686 525
126094 349031 443
102421 619558 470
70396 128112 354
292641 102923 443
6486 238038 443
68361 298361 443
106822 145472 375
97182 31138 351
194786 605574 470
813044 822647 450
66687 30704 340
514612 519280 439
585652 677793 509
78067 470727 449
537285 134969 470
651780 715362 504
621017 501428 470
947659 457807 525
668055 995144 525
399991 285049 441
134042 319675 443
345909 928236 525
847451 668719 525
190399 59482 383
222448 980787 525
388569 921507 525
476649 780261 509
587885 281037 470
849523 432773 525
487516 74638 449
970902 898947 507
447789 115046 449
984873 354193 525
74741 153348 375
528371 507731 470
21194 216035 383
467832 447560 444
72775 990537 525
98999 198421 383
322647 389332 441
880966 404654 525
858186 662211 525
669876 763737 504
900536 954327 507
252199 700530 509
90306 859294 525
95553 401660 443
235493 533520 470
948995 170851 525
123916 390331 443
718975 512775 509
166312 387345 443
35822 624653 470
56118 687286 509
17699 938657 525
838798 298113 525
71535 872931 525
155976 82690 375
56319 755743 509
699583 638780 442
781418 755493 468
805543 224943 509
641445 505893 509
691324 817929 504
454319 811255 509
380282 801679 509
774358 986281 525
285840 303658 389
520423 30375 470
426088 431193 374
445071 831772 509
580070 677228 509
288524 22159 443
94262 377826 443
371980 268464 441
82116 510870 449
713808 85506 509
37436 99690 351
325465 714105 509
